simWorkspace/PE/test.vcd
$version Generated by VerilatedVcd $end
$timescale 1ps $end

 $scope module TOP $end
  $var wire  1 3 clk $end
  $var wire  8 - io_din_payload_data [7:0] $end
  $var wire  8 . io_din_payload_weight [7:0] $end
  $var wire  1 , io_din_valid $end
  $var wire  8 0 io_dout_payload_data [7:0] $end
  $var wire  8 1 io_dout_payload_weight [7:0] $end
  $var wire  1 / io_dout_valid $end
  $var wire 16 2 io_mulres [15:0] $end
  $var wire  1 4 resetn $end
  $scope module PE $end
   $var wire 16 5 MAX_VALUE [15:0] $end
   $var wire 16 6 MIN_VALUE [15:0] $end
   $var wire  1 3 clk $end
   $var wire  1 * cond0 $end
   $var wire  1 + cond1 $end
   $var wire  8 # dinPayloadReg_data [7:0] $end
   $var wire  8 $ dinPayloadReg_weight [7:0] $end
   $var wire  1 % dinValidReg $end
   $var wire  8 - io_din_payload_data [7:0] $end
   $var wire  8 . io_din_payload_weight [7:0] $end
   $var wire  1 , io_din_valid $end
   $var wire  8 0 io_dout_payload_data [7:0] $end
   $var wire  8 1 io_dout_payload_weight [7:0] $end
   $var wire  1 / io_dout_valid $end
   $var wire 16 2 io_mulres [15:0] $end
   $var wire 16 & multiplyRes [15:0] $end
   $var wire  1 ( resAccRegValue0 $end
   $var wire  3 ) resAccRegValue1 [2:0] $end
   $var wire 18 ' resAccReg_value [17:0] $end
   $var wire  1 4 resetn $end
  $upscope $end
 $upscope $end
$enddefinitions $end


#0
b10111111 #
b00011000 $
0%
b1111100111101000 &
b000000000000000000 '
0(
b000 )
0*
0+
0,
b11101110 -
b10110001 .
0/
b10111111 0
b00011000 1
b0000000000000000 2
13
04
b0111111111111111 5
b1000000000000000 6
#5
03
#10
13
#15
03
#20
13
#25
03
#30
13
#35
03
#40
13
#45
03
#50
13
#55
03
#60
13
#65
03
#70
13
#75
03
#80
13
#85
03
#90
13
#95
03
#100
13
#105
03
#110
13
#115
03
#120
13
#125
03
#130
13
#135
03
#140
13
#145
03
#150
13
#155
03
#160
13
14
#165
03
#170
1,
b01111111 -
b01111111 .
13
#175
03
#180
b01111111 #
b01111111 $
1%
b0011111100000001 &
1/
b01111111 0
b01111111 1
13
#185
03
#190
b000011111100000001 '
b0011111100000001 2
13
#195
03
#200
b000111111000000010 '
b10000000 -
b0111111000000010 2
13
#205
03
#210
b10000000 #
b1100000010000000 &
b001011110100000011 '
b001 )
1*
b10000000 0
b0111111111111111 2
13
#215
03
#220
b000111110110000011 '
b000 )
0*
b0111110110000011 2
13
#225
03
#230
b000011111000000011 '
b0011111000000011 2
13
#235
03
#240
b111111111010000011 '
1(
b111 )
b1111111010000011 2
13
#245
03
#250
b111011111100000011 '
b1011111100000011 2
13
#255
03
#260
b110111111110000011 '
b110 )
1+
b1000000000000000 2
13
#265
03
#270
b110100000000000011 '
13
#275
03
#280
b110000000010000011 '
13
#285
03
#290
b101100000100000011 '
b101 )
13
#295
03
#300
b101000000110000011 '
13
#305
03
#310
b100100001000000011 '
b100 )
13
#315
03
#320
b100000001010000011 '
13
#325
03
#330
b011100001100000011 '
0(
b011 )
1*
0+
b0111111111111111 2
13
