simWorkspace/PE/test.vcd
$version Generated by VerilatedVcd $end
$timescale 1ps $end

 $scope module TOP $end
  $var wire  1 8 clk $end
  $var wire  1 1 io_din_ctrl_lastOrFlush $end
  $var wire  1 0 io_din_ctrl_valid $end
  $var wire  8 . io_din_payload_data [7:0] $end
  $var wire  8 / io_din_payload_weight [7:0] $end
  $var wire  1 5 io_dout_ctrl_lastOrFlush $end
  $var wire  1 4 io_dout_ctrl_valid $end
  $var wire  8 2 io_dout_payload_data [7:0] $end
  $var wire  8 3 io_dout_payload_weight [7:0] $end
  $var wire 16 7 io_mulres_payload [15:0] $end
  $var wire  1 6 io_mulres_valid $end
  $var wire  1 9 resetn $end
  $scope module PE $end
   $var wire 16 : MAX_VALUE [15:0] $end
   $var wire 16 ; MIN_VALUE [15:0] $end
   $var wire  1 8 clk $end
   $var wire  1 , cond0 $end
   $var wire  1 - cond1 $end
   $var wire  1 & dinCtrlReg_lastOrFlush $end
   $var wire  1 % dinCtrlReg_valid $end
   $var wire  8 # dinPayloadReg_data [7:0] $end
   $var wire  8 $ dinPayloadReg_weight [7:0] $end
   $var wire  1 1 io_din_ctrl_lastOrFlush $end
   $var wire  1 0 io_din_ctrl_valid $end
   $var wire  8 . io_din_payload_data [7:0] $end
   $var wire  8 / io_din_payload_weight [7:0] $end
   $var wire  1 5 io_dout_ctrl_lastOrFlush $end
   $var wire  1 4 io_dout_ctrl_valid $end
   $var wire  8 2 io_dout_payload_data [7:0] $end
   $var wire  8 3 io_dout_payload_weight [7:0] $end
   $var wire 16 7 io_mulres_payload [15:0] $end
   $var wire  1 6 io_mulres_valid $end
   $var wire 16 ' multiplyRes [15:0] $end
   $var wire  1 * resAccRegValue0 $end
   $var wire  3 + resAccRegValue1 [2:0] $end
   $var wire  1 ( resAccReg_lastOrFlushReg $end
   $var wire 18 ) resAccReg_value [17:0] $end
   $var wire  1 9 resetn $end
  $upscope $end
 $upscope $end
$enddefinitions $end


#0
b00110100 #
b00100010 $
0%
1&
b0000011011101000 '
0(
b000000011011101000 )
0*
b000 +
0,
0-
b00110100 .
b00100010 /
00
11
b00110100 2
b00100010 3
04
15
06
b0000011011101000 7
18
09
b0111111111111111 :
b1000000000000000 ;
#5
08
#10
1(
16
18
#15
08
#20
18
#25
08
#30
18
#35
08
#40
18
#45
08
#50
18
#55
08
#60
18
#65
08
#70
18
#75
08
#80
18
#85
08
#90
18
#95
08
#100
18
#105
08
#110
18
#115
08
#120
18
#125
08
#130
18
#135
08
#140
18
#145
08
#150
18
#155
08
#160
18
19
#165
08
#170
b01111111 .
b01111111 /
10
01
18
#175
08
#180
b01111111 #
b01111111 $
1%
0&
b0011111100000001 '
b01111111 2
b01111111 3
14
05
18
#185
08
#190
0(
b000011111100000001 )
06
b0011111100000001 7
18
#195
08
#200
b000111111000000010 )
b10000000 .
b0111111000000010 7
18
#205
08
#210
b10000000 #
b1100000010000000 '
b001011110100000011 )
b001 +
1,
b10000000 2
b0111111111111111 7
18
#215
08
#220
b000111110110000011 )
b000 +
0,
b0111110110000011 7
18
#225
08
#230
b000011111000000011 )
b0011111000000011 7
18
#235
08
#240
b111111111010000011 )
1*
b111 +
b1111111010000011 7
18
#245
08
#250
b111011111100000011 )
b1011111100000011 7
18
#255
08
#260
b110111111110000011 )
b110 +
1-
b1000000000000000 7
18
#265
08
#270
b110100000000000011 )
18
#275
08
#280
b110000000010000011 )
18
#285
08
#290
b101100000100000011 )
b101 +
18
#295
08
#300
b101000000110000011 )
18
#305
08
#310
b100100001000000011 )
b100 +
18
#315
08
#320
b100000001010000011 )
18
#325
08
#330
b011100001100000011 )
0*
b011 +
1,
0-
b0111111111111111 7
18
